{
  "IcoMoonType": "selection",
  "icons": [
    {
      "icon": {
        "paths": [
          "M512 96c-229.76 0-416 186.24-416 416s186.24 416 416 416 416-186.24 416-416-186.24-416-416-416zM744.256 393.824l-303.552 303.52c-7.616 7.584-19.936 7.584-27.552 0l-6.112-6.112-0.032 0.032-167.008-168.192c-7.616-7.616-7.616-19.968 0-27.584l41.408-41.376c7.616-7.616 19.968-7.616 27.584 0l118.048 118.912 248.192-248.192c7.616-7.616 19.968-7.616 27.584 0l41.408 41.408c7.648 7.584 7.648 19.936 0.032 27.584z"
        ],
        "attrs": [],
        "isMulticolor": false,
        "isMulticolor2": false,
        "tags": [
          "checkmark",
          "tick"
        ],
        "grid": 32
      },
      "attrs": [],
      "properties": {
        "id": 0,
        "order": 25,
        "prevSize": 32,
        "code": 59648,
        "name": "checkmark"
      },
      "setIdx": 0,
      "setId": 11,
      "iconIdx": 0
    },
    {
      "icon": {
        "paths": [
          "M698.24 416.96l-32.064-32.064c-5.92-5.92-15.488-5.92-21.376 0l-192.448 192.416-91.488-92.224c-5.952-5.92-15.488-5.92-21.44 0l-32.064 32.096c-5.92 5.92-5.92 15.488 0 21.376l134.176 135.136c5.92 5.888 15.488 5.888 21.376 0l235.328-235.328c5.952-5.92 5.952-15.488 0-21.408zM512 96c-229.76 0-416 186.24-416 416s186.24 416 416 416 416-186.24 416-416-186.24-416-416-416zM512 832c-176.704 0-320-143.296-320-320 0-176.736 143.296-320 320-320 176.736 0 320 143.264 320 320 0 176.704-143.264 320-320 320z"
        ],
        "attrs": [],
        "isMulticolor": false,
        "isMulticolor2": false,
        "tags": [
          "checkmark",
          "tick"
        ],
        "grid": 32
      },
      "attrs": [],
      "properties": {
        "id": 1,
        "order": 24,
        "prevSize": 32,
        "code": 59649,
        "name": "checkmark2"
      },
      "setIdx": 0,
      "setId": 11,
      "iconIdx": 1
    },
    {
      "icon": {
        "paths": [
          "M512 928c-229.76 0-416-186.24-416-416s186.24-416 416-416 416 186.24 416 416-186.24 416-416 416zM702.752 390.688c7.808-7.808 7.808-20.512 0-28.32l-42.496-42.464c-7.808-7.808-20.512-7.808-28.32 0l-120.352 120.352-120.352-120.352c-7.808-7.808-20.512-7.808-28.32 0l-42.496 42.464c-7.808 7.808-7.808 20.512 0 28.32l120.384 120.384-120.384 120.32c-7.808 7.808-7.808 20.512 0 28.32l42.496 42.496c7.808 7.808 20.512 7.808 28.32 0l120.352-120.384 120.352 120.384c7.808 7.808 20.512 7.808 28.32 0l42.496-42.496c7.808-7.808 7.808-20.512 0-28.32l-120.384-120.32 120.384-120.384z"
        ],
        "attrs": [],
        "isMulticolor": false,
        "isMulticolor2": false,
        "tags": [
          "cancel",
          "close"
        ],
        "grid": 32
      },
      "attrs": [],
      "properties": {
        "id": 2,
        "order": 31,
        "prevSize": 32,
        "code": 59650,
        "name": "cancel"
      },
      "setIdx": 0,
      "setId": 11,
      "iconIdx": 2
    },
    {
      "icon": {
        "paths": [
          "M512 928c-229.76 0-416-186.24-416-416s186.24-416 416-416 416 186.24 416 416-186.24 416-416 416zM512 192c-176.704 0-320 143.296-320 320s143.296 320 320 320c176.736 0 320-143.296 320-320s-143.264-320-320-320zM657.184 625.12l-32.448 32.448c-5.952 5.952-15.616 5.952-21.6 0l-91.84-91.84-91.84 91.84c-5.984 5.952-15.616 5.952-21.6 0l-32.448-32.448c-5.952-5.952-5.952-15.616 0-21.6l91.872-91.808-91.872-91.84c-5.952-5.984-5.952-15.648 0-21.632l32.448-32.416c5.984-5.984 15.616-5.984 21.6 0l91.84 91.84 91.84-91.84c5.984-5.984 15.648-5.984 21.6 0l32.448 32.416c5.952 5.984 5.952 15.648 0 21.632l-91.872 91.84 91.872 91.808c5.952 5.984 5.952 15.68 0 21.6z"
        ],
        "attrs": [],
        "isMulticolor": false,
        "isMulticolor2": false,
        "tags": [
          "cancel",
          "close"
        ],
        "grid": 32
      },
      "attrs": [],
      "properties": {
        "id": 3,
        "order": 22,
        "prevSize": 32,
        "code": 59651,
        "name": "cancel2"
      },
      "setIdx": 0,
      "setId": 11,
      "iconIdx": 3
    },
    {
      "icon": {
        "paths": [
          "M496 944c-229.76 0-416-186.24-416-416s186.24-416 416-416 416 186.24 416 416-186.24 416-416 416zM702.016 510.016c0-17.664-14.336-32-32-32h-128v-128c0-17.664-14.304-32-32-32h-32c-17.696 0-32 14.336-32 32v128h-128c-17.696 0-32 14.336-32 32v32c0 17.696 14.304 32 32 32h128v128c0 17.696 14.304 32 32 32h32c17.696 0 32-14.304 32-32v-128h128c17.664 0 32-14.304 32-32v-32z"
        ],
        "attrs": [],
        "isMulticolor": false,
        "isMulticolor2": false,
        "tags": [
          "plus",
          "add"
        ],
        "grid": 32
      },
      "attrs": [],
      "properties": {
        "id": 4,
        "order": 30,
        "prevSize": 32,
        "code": 59652,
        "name": "plus"
      },
      "setIdx": 0,
      "setId": 11,
      "iconIdx": 4
    },
    {
      "icon": {
        "paths": [
          "M512 928c-229.76 0-416-186.24-416-416s186.24-416 416-416 416 186.24 416 416-186.24 416-416 416zM512 192c-176.704 0-320 143.264-320 320 0 176.704 143.296 320 320 320 176.736 0 320-143.296 320-320 0-176.736-143.264-320-320-320zM639.616 544h-96v96c0 17.696-14.336 32-32 32-17.696 0-32-14.304-32-32v-96h-96c-17.696 0-32-14.336-32-32s14.304-32 32-32h96v-96c0-17.696 14.304-32 32-32 17.664 0 32 14.304 32 32v96h96c17.664 0 32 14.336 32 32s-14.336 32-32 32z"
        ],
        "attrs": [],
        "isMulticolor": false,
        "isMulticolor2": false,
        "tags": [
          "plus",
          "add"
        ],
        "grid": 32
      },
      "attrs": [],
      "properties": {
        "id": 5,
        "order": 23,
        "prevSize": 32,
        "code": 59653,
        "name": "plus2"
      },
      "setIdx": 0,
      "setId": 11,
      "iconIdx": 5
    },
    {
      "icon": {
        "paths": [
          "M496 112c-229.76 0-416 186.24-416 416s186.24 416 416 416c229.76 0 416-186.24 416-416s-186.24-416-416-416zM704 540c0 17.696-14.336 32-32 32h-352c-17.696 0-32-14.304-32-32v-32c0-17.664 14.304-32 32-32h352c17.664 0 32 14.336 32 32v32z"
        ],
        "attrs": [],
        "isMulticolor": false,
        "isMulticolor2": false,
        "tags": [
          "minus",
          "remove",
          "delete"
        ],
        "grid": 32
      },
      "attrs": [],
      "properties": {
        "id": 6,
        "order": 26,
        "prevSize": 32,
        "code": 59654,
        "name": "minus"
      },
      "setIdx": 0,
      "setId": 11,
      "iconIdx": 6
    },
    {
      "icon": {
        "paths": [
          "M512 96c-229.76 0-416 186.24-416 416s186.24 416 416 416 416-186.24 416-416-186.24-416-416-416zM512 832c-176.704 0-320-143.296-320-320 0-176.736 143.296-320 320-320 176.736 0 320 143.264 320 320 0 176.704-143.264 320-320 320zM631.616 480h-256c-17.696 0-32 14.336-32 32 0 17.696 14.304 32 32 32h256c17.696 0 32-14.304 32-32 0-17.664-14.304-32-32-32z"
        ],
        "attrs": [],
        "isMulticolor": false,
        "isMulticolor2": false,
        "tags": [
          "minus",
          "remove",
          "delete"
        ],
        "grid": 32
      },
      "attrs": [],
      "properties": {
        "id": 7,
        "order": 27,
        "prevSize": 32,
        "code": 59655,
        "name": "minus2"
      },
      "setIdx": 0,
      "setId": 11,
      "iconIdx": 7
    },
    {
      "icon": {
        "paths": [
          "M496 112c-229.76 0-416 186.24-416 416s186.24 416 416 416 416-186.24 416-416-186.24-416-416-416zM496 764c-26.528 0-48-21.504-48-48s21.472-48 48-48c26.496 0 48 21.504 48 48s-21.504 48-48 48zM544 556c0 26.496-21.504 48-48 48-26.528 0-48-21.504-48-48v-224c0-26.528 21.472-48 48-48 26.496 0 48 21.472 48 48v224z"
        ],
        "attrs": [],
        "isMulticolor": false,
        "isMulticolor2": false,
        "tags": [
          "notice",
          "warning",
          "explanation mark",
          "notification"
        ],
        "grid": 32
      },
      "attrs": [],
      "properties": {
        "id": 8,
        "order": 29,
        "prevSize": 32,
        "code": 59656,
        "name": "notice"
      },
      "setIdx": 0,
      "setId": 11,
      "iconIdx": 8
    },
    {
      "icon": {
        "paths": [
          "M496 96c-238.592 0-432 193.408-432 432s193.408 432 432 432 432-193.408 432-432-193.408-432-432-432zM496 864c-185.568 0-336-150.432-336-336s150.432-336 336-336 336 150.432 336 336-150.432 336-336 336zM496 320c-26.496 0-48 21.472-48 48v161.984c0 26.496 21.504 48 48 48s48-21.504 48-48v-161.984c0-26.528-21.504-48-48-48zM496 640c-26.496 0-48 21.504-48 48s21.504 48 48 48 48-21.504 48-48-21.504-48-48-48z"
        ],
        "attrs": [],
        "isMulticolor": false,
        "isMulticolor2": false,
        "tags": [
          "notice",
          "warning",
          "explanation mark",
          "notification"
        ],
        "grid": 32
      },
      "attrs": [],
      "properties": {
        "id": 9,
        "order": 28,
        "prevSize": 32,
        "code": 59657,
        "name": "notice2"
      },
      "setIdx": 0,
      "setId": 11,
      "iconIdx": 9
    },
    {
      "icon": {
        "paths": [
          "M704 278c-46 0-86 38-86 84s40 86 86 86 86-40 86-86-40-84-86-84zM704 512c-82 0-150-68-150-150s68-148 150-148 150 66 150 148-68 150-150 150zM320 278c-46 0-86 38-86 84s40 86 86 86 86-40 86-86-40-84-86-84zM320 512c-82 0-150-68-150-150s68-148 150-148 150 66 150 148-68 150-150 150zM918 746v-52c0-24-110-76-214-76-46 0-90 12-128 24 14 16 22 32 22 52v52h320zM534 746v-52c0-24-110-76-214-76s-214 52-214 76v52h428zM704 554c92 0 278 48 278 140v116h-940v-116c0-92 186-140 278-140 52 0 130 16 192 44 62-28 140-44 192-44z"
        ],
        "attrs": [],
        "isMulticolor": false,
        "isMulticolor2": false,
        "tags": [
          "people_outline"
        ],
        "defaultCode": 59388,
        "grid": 24
      },
      "attrs": [],
      "properties": {
        "order": 32,
        "ligatures": "people_outline",
        "id": 0,
        "prevSize": 24,
        "code": 59388,
        "name": "people_outline"
      },
      "setIdx": 1,
      "setId": 10,
      "iconIdx": 0
    },
    {
      "icon": {
        "paths": [
          "M512 554c114 0 342 58 342 172v128h-684v-128c0-114 228-172 342-172zM512 170c94 0 170 78 170 172s-76 170-170 170-170-76-170-170 76-172 170-172zM512 636c-126 0-260 62-260 90v46h520v-46c0-28-134-90-260-90zM512 252c-50 0-90 40-90 90s40 88 90 88 90-38 90-88-40-90-90-90z"
        ],
        "attrs": [],
        "isMulticolor": false,
        "isMulticolor2": false,
        "tags": [
          "person_outline"
        ],
        "defaultCode": 59391,
        "grid": 24
      },
      "attrs": [],
      "properties": {
        "order": 33,
        "ligatures": "perm_identity, person_outline",
        "id": 1,
        "prevSize": 24,
        "code": 59391,
        "name": "person_outline"
      },
      "setIdx": 1,
      "setId": 10,
      "iconIdx": 1
    },
    {
      "icon": {
        "paths": [
          "M854 470v84h-520l238 240-60 60-342-342 342-342 60 60-238 240h520z"
        ],
        "attrs": [],
        "isMulticolor": false,
        "isMulticolor2": false,
        "tags": [
          "arrow_back"
        ],
        "defaultCode": 58820,
        "grid": 24
      },
      "attrs": [],
      "properties": {
        "order": 34,
        "ligatures": "arrow_back",
        "id": 45,
        "prevSize": 24,
        "code": 58820,
        "name": "arrow_back"
      },
      "setIdx": 8,
      "setId": 3,
      "iconIdx": 45
    },
    {
      "icon": {
        "paths": [
          "M512 170l342 342-342 342-60-60 238-240h-520v-84h520l-238-240z"
        ],
        "attrs": [],
        "isMulticolor": false,
        "isMulticolor2": false,
        "tags": [
          "arrow_forward"
        ],
        "defaultCode": 58824,
        "grid": 24
      },
      "attrs": [],
      "properties": {
        "order": 35,
        "ligatures": "arrow_forward",
        "id": 50,
        "prevSize": 24,
        "code": 58824,
        "name": "arrow_forward"
      },
      "setIdx": 8,
      "setId": 3,
      "iconIdx": 50
    },
    {
      "icon": {
        "paths": [
          "M231.219 386.458c22.323-22.835 53.402-24.627 80.691 0l200.090 191.846 200.090-191.846c27.29-24.627 58.419-22.835 80.589 0 22.323 22.784 20.89 61.286 0 82.688-20.787 21.402-240.384 230.502-240.384 230.502-11.11 11.418-25.702 17.152-40.294 17.152s-29.184-5.734-40.397-17.152c0 0-219.494-209.101-240.384-230.502-20.941-21.402-22.323-59.904 0-82.688z"
        ],
        "attrs": [],
        "isMulticolor": false,
        "isMulticolor2": false,
        "tags": [
          "chevron-down"
        ],
        "grid": 20
      },
      "attrs": [],
      "properties": {
        "id": 0,
        "order": 19,
        "prevSize": 20,
        "code": 59658,
        "name": "chevron-down"
      },
      "setIdx": 2,
      "setId": 9,
      "iconIdx": 0
    },
    {
      "icon": {
        "paths": [
          "M637.542 231.219c22.835 22.323 24.627 53.402 0 80.691l-191.846 200.090 191.846 200.090c24.627 27.29 22.835 58.419 0 80.589-22.784 22.323-61.286 20.89-82.688 0-21.402-20.787-230.502-240.384-230.502-240.384-11.418-11.11-17.152-25.702-17.152-40.294s5.734-29.184 17.152-40.397c0 0 209.101-219.494 230.502-240.384 21.402-20.941 59.904-22.323 82.688 0z"
        ],
        "attrs": [],
        "isMulticolor": false,
        "isMulticolor2": false,
        "tags": [
          "chevron-left"
        ],
        "grid": 20
      },
      "attrs": [],
      "properties": {
        "id": 1,
        "order": 18,
        "prevSize": 20,
        "code": 59659,
        "name": "chevron-left"
      },
      "setIdx": 2,
      "setId": 9,
      "iconIdx": 1
    },
    {
      "icon": {
        "paths": [
          "M469.146 231.219c21.402 20.89 230.502 240.384 230.502 240.384 11.418 11.213 17.152 25.805 17.152 40.397s-5.734 29.184-17.152 40.294c0 0-209.101 219.597-230.502 240.384-21.402 20.89-59.904 22.323-82.688 0-22.835-22.221-24.627-53.299 0-80.589l191.846-200.090-191.846-200.090c-24.627-27.29-22.835-58.419 0-80.691 22.784-22.323 61.286-20.941 82.688 0z"
        ],
        "attrs": [],
        "isMulticolor": false,
        "isMulticolor2": false,
        "tags": [
          "chevron-right"
        ],
        "grid": 20
      },
      "attrs": [],
      "properties": {
        "id": 2,
        "order": 17,
        "prevSize": 20,
        "code": 59660,
        "name": "chevron-right"
      },
      "setIdx": 2,
      "setId": 9,
      "iconIdx": 2
    },
    {
      "icon": {
        "paths": [
          "M687.002 402.381c13.875-13.722 36.301-13.722 50.074 0 13.824 13.722 13.926 35.891 0 49.613l-200.090 196.096c-13.824 13.722-36.198 13.722-50.125 0l-200.090-196.096c-13.824-13.67-13.824-35.891 0-49.613 13.875-13.722 36.301-13.722 50.074 0l175.155 160.819 175.002-160.819z"
        ],
        "attrs": [],
        "isMulticolor": false,
        "isMulticolor2": false,
        "tags": [
          "chevron-small-down"
        ],
        "grid": 20
      },
      "attrs": [],
      "properties": {
        "id": 3,
        "order": 16,
        "prevSize": 20,
        "code": 59661,
        "name": "chevron-small-down"
      },
      "setIdx": 2,
      "setId": 9,
      "iconIdx": 3
    },
    {
      "icon": {
        "paths": [
          "M621.619 687.002c13.722 13.875 13.722 36.301 0 50.074-13.722 13.824-35.891 13.926-49.613 0l-196.096-200.090c-13.722-13.824-13.722-36.198 0-50.125l196.096-200.090c13.67-13.824 35.891-13.824 49.613 0 13.722 13.875 13.722 36.301 0 50.074l-160.819 175.155 160.819 175.002z"
        ],
        "attrs": [],
        "isMulticolor": false,
        "isMulticolor2": false,
        "tags": [
          "chevron-small-left"
        ],
        "grid": 20
      },
      "attrs": [],
      "properties": {
        "id": 4,
        "order": 15,
        "prevSize": 20,
        "code": 59662,
        "name": "chevron-small-left"
      },
      "setIdx": 2,
      "setId": 9,
      "iconIdx": 4
    },
    {
      "icon": {
        "paths": [
          "M563.2 512l-160.819-175.104c-13.722-13.824-13.722-36.198 0-50.074 13.722-13.824 35.891-13.824 49.613 0l196.096 200.090c13.722 13.875 13.722 36.301 0 50.125l-196.096 200.090c-13.67 13.926-35.891 13.824-49.613 0-13.722-13.773-13.722-36.198 0-50.074l160.819-175.053z"
        ],
        "attrs": [],
        "isMulticolor": false,
        "isMulticolor2": false,
        "tags": [
          "chevron-small-right"
        ],
        "grid": 20
      },
      "attrs": [],
      "properties": {
        "id": 5,
        "order": 14,
        "prevSize": 20,
        "code": 59663,
        "name": "chevron-small-right"
      },
      "setIdx": 2,
      "setId": 9,
      "iconIdx": 5
    },
    {
      "icon": {
        "paths": [
          "M336.998 621.619c-13.875 13.722-36.301 13.722-50.074 0s-13.926-35.891 0-49.613l200.090-196.096c13.824-13.722 36.198-13.722 50.125 0l200.090 196.096c13.824 13.67 13.824 35.891 0 49.613-13.875 13.722-36.301 13.722-50.125 0l-175.104-160.819-175.002 160.819z"
        ],
        "attrs": [],
        "isMulticolor": false,
        "isMulticolor2": false,
        "tags": [
          "chevron-small-up"
        ],
        "grid": 20
      },
      "attrs": [],
      "properties": {
        "id": 6,
        "order": 13,
        "prevSize": 20,
        "code": 59664,
        "name": "chevron-small-up"
      },
      "setIdx": 2,
      "setId": 9,
      "iconIdx": 6
    },
    {
      "icon": {
        "paths": [
          "M891.802 312.781c13.926-13.722 36.301-13.722 50.125 0s13.875 35.891 0 49.613l-404.89 400.896c-13.824 13.722-36.198 13.722-50.125 0l-404.89-400.896c-13.824-13.722-13.824-35.891 0-49.613 13.875-13.722 36.301-13.722 50.125 0l379.853 365.619 379.802-365.619z"
        ],
        "attrs": [],
        "isMulticolor": false,
        "isMulticolor2": false,
        "tags": [
          "chevron-thin-down"
        ],
        "grid": 20
      },
      "attrs": [],
      "properties": {
        "id": 7,
        "order": 12,
        "prevSize": 20,
        "code": 59665,
        "name": "chevron-thin-down"
      },
      "setIdx": 2,
      "setId": 9,
      "iconIdx": 7
    },
    {
      "icon": {
        "paths": [
          "M711.219 891.802c13.722 13.926 13.722 36.301 0 50.125s-35.891 13.875-49.613 0l-400.896-404.89c-13.722-13.824-13.722-36.198 0-50.125l400.896-404.89c13.722-13.824 35.891-13.824 49.613 0 13.722 13.875 13.722 36.301 0 50.125l-365.619 379.853 365.619 379.802z"
        ],
        "attrs": [],
        "isMulticolor": false,
        "isMulticolor2": false,
        "tags": [
          "chevron-thin-left"
        ],
        "grid": 20
      },
      "attrs": [],
      "properties": {
        "id": 8,
        "order": 11,
        "prevSize": 20,
        "code": 59666,
        "name": "chevron-thin-left"
      },
      "setIdx": 2,
      "setId": 9,
      "iconIdx": 8
    },
    {
      "icon": {
        "paths": [
          "M678.4 512l-365.619-379.904c-13.722-13.824-13.722-36.198 0-50.125 13.722-13.824 35.891-13.824 49.613 0l400.896 404.89c13.722 13.875 13.722 36.301 0 50.125l-400.896 404.89c-13.722 13.875-35.891 13.824-49.613 0-13.722-13.773-13.722-36.198 0-50.125l365.619-379.75z"
        ],
        "attrs": [],
        "isMulticolor": false,
        "isMulticolor2": false,
        "tags": [
          "chevron-thin-right"
        ],
        "grid": 20
      },
      "attrs": [],
      "properties": {
        "id": 9,
        "order": 10,
        "prevSize": 20,
        "code": 59667,
        "name": "chevron-thin-right"
      },
      "setIdx": 2,
      "setId": 9,
      "iconIdx": 9
    },
    {
      "icon": {
        "paths": [
          "M132.198 711.219c-13.926 13.722-36.301 13.722-50.125 0s-13.875-35.891 0-49.613l404.89-400.896c13.824-13.722 36.198-13.722 50.125 0l404.89 400.896c13.824 13.722 13.824 35.891 0 49.613-13.875 13.722-36.301 13.722-50.074 0l-379.904-365.619-379.802 365.619z"
        ],
        "attrs": [],
        "isMulticolor": false,
        "isMulticolor2": false,
        "tags": [
          "chevron-thin-up"
        ],
        "grid": 20
      },
      "attrs": [],
      "properties": {
        "id": 10,
        "order": 9,
        "prevSize": 20,
        "code": 59668,
        "name": "chevron-thin-up"
      },
      "setIdx": 2,
      "setId": 9,
      "iconIdx": 10
    },
    {
      "icon": {
        "paths": [
          "M792.781 637.542c-22.323 22.835-53.402 24.627-80.691 0l-200.090-191.846-200.090 191.846c-27.29 24.627-58.419 22.835-80.589 0-22.323-22.784-20.89-61.286 0-82.688 20.787-21.402 240.384-230.502 240.384-230.502 11.11-11.418 25.702-17.152 40.294-17.152s29.184 5.734 40.397 17.152c0 0 219.494 209.101 240.384 230.502 20.941 21.402 22.323 59.904 0 82.688z"
        ],
        "attrs": [],
        "isMulticolor": false,
        "isMulticolor2": false,
        "tags": [
          "chevron-up"
        ],
        "grid": 20
      },
      "attrs": [],
      "properties": {
        "id": 11,
        "order": 8,
        "prevSize": 20,
        "code": 59669,
        "name": "chevron-up"
      },
      "setIdx": 2,
      "setId": 9,
      "iconIdx": 11
    },
    {
      "icon": {
        "paths": [
          "M640.256 445.338l-128.256 117.862-128.307-117.862c-10.138-10.035-26.522-10.035-36.762 0-10.086 10.035-10.086 26.368 0 36.352l146.637 143.718c10.189 10.035 26.624 10.035 36.71 0l146.637-143.718c10.189-9.984 10.138-26.317 0-36.352-10.086-10.035-26.47-10.035-36.659 0zM512 20.48c-271.462 0-491.52 220.058-491.52 491.52 0 271.514 220.058 491.52 491.52 491.52s491.52-220.006 491.52-491.52c0-271.462-220.058-491.52-491.52-491.52zM512 939.725c-236.288 0-427.725-191.488-427.725-427.725s191.437-427.725 427.725-427.725c236.186 0 427.725 191.488 427.725 427.725s-191.539 427.725-427.725 427.725z"
        ],
        "attrs": [],
        "isMulticolor": false,
        "isMulticolor2": false,
        "tags": [
          "chevron-with-circle-down"
        ],
        "grid": 20
      },
      "attrs": [],
      "properties": {
        "id": 12,
        "order": 6,
        "prevSize": 20,
        "code": 59670,
        "name": "chevron-with-circle-down"
      },
      "setIdx": 2,
      "setId": 9,
      "iconIdx": 12
    },
    {
      "icon": {
        "paths": [
          "M578.662 346.931c-10.035-10.086-26.368-10.086-36.352 0l-143.718 146.688c-10.035 10.189-10.035 26.624 0 36.71l143.718 146.637c9.984 10.189 26.317 10.138 36.352 0 10.035-10.086 10.035-26.522 0-36.71l-117.862-128.256 117.862-128.307c10.035-10.138 10.035-26.522 0-36.762zM512 20.48c-271.462 0-491.52 220.058-491.52 491.52 0 271.514 220.058 491.52 491.52 491.52s491.52-220.006 491.52-491.52c0-271.462-220.058-491.52-491.52-491.52zM512 939.725c-236.288 0-427.725-191.488-427.725-427.725s191.437-427.725 427.725-427.725c236.186 0 427.725 191.488 427.725 427.725s-191.539 427.725-427.725 427.725z"
        ],
        "attrs": [],
        "isMulticolor": false,
        "isMulticolor2": false,
        "tags": [
          "chevron-with-circle-left"
        ],
        "grid": 20
      },
      "attrs": [],
      "properties": {
        "id": 13,
        "order": 5,
        "prevSize": 20,
        "code": 59671,
        "name": "chevron-with-circle-left"
      },
      "setIdx": 2,
      "setId": 9,
      "iconIdx": 13
    },
    {
      "icon": {
        "paths": [
          "M563.2 512l-117.862-128.307c-10.035-10.138-10.035-26.573 0-36.762 10.035-10.086 26.368-10.086 36.352 0l143.718 146.637c10.035 10.189 10.035 26.624 0 36.71l-143.718 146.637c-9.984 10.189-26.317 10.138-36.352 0-10.035-10.086-10.035-26.522 0-36.71l117.862-128.205zM512 20.48c271.462 0 491.52 220.058 491.52 491.52 0 271.514-220.058 491.52-491.52 491.52s-491.52-220.006-491.52-491.52c0-271.462 220.058-491.52 491.52-491.52zM512 939.725c236.186 0 427.725-191.488 427.725-427.725s-191.539-427.725-427.725-427.725c-236.288 0-427.725 191.488-427.725 427.725-0.051 236.237 191.437 427.725 427.725 427.725z"
        ],
        "attrs": [],
        "isMulticolor": false,
        "isMulticolor2": false,
        "tags": [
          "chevron-with-circle-right"
        ],
        "grid": 20
      },
      "attrs": [],
      "properties": {
        "id": 14,
        "order": 4,
        "prevSize": 20,
        "code": 59672,
        "name": "chevron-with-circle-right"
      },
      "setIdx": 2,
      "setId": 9,
      "iconIdx": 14
    },
    {
      "icon": {
        "paths": [
          "M530.381 398.592c-10.189-10.035-26.624-10.035-36.71 0l-146.637 143.718c-10.189 9.984-10.138 26.317 0 36.352 10.086 10.035 26.522 10.035 36.71 0l128.256-117.862 128.307 117.862c10.138 10.035 26.522 10.035 36.762 0 10.086-10.035 10.086-26.368 0-36.352l-146.688-143.718zM512 20.48c-271.462 0-491.52 220.058-491.52 491.52 0 271.514 220.058 491.52 491.52 491.52s491.52-220.006 491.52-491.52c0-271.462-220.058-491.52-491.52-491.52zM512 939.725c-236.288 0-427.725-191.488-427.725-427.725s191.437-427.725 427.725-427.725c236.186 0 427.725 191.488 427.725 427.725s-191.539 427.725-427.725 427.725z"
        ],
        "attrs": [],
        "isMulticolor": false,
        "isMulticolor2": false,
        "tags": [
          "chevron-with-circle-up"
        ],
        "grid": 20
      },
      "attrs": [],
      "properties": {
        "id": 15,
        "order": 7,
        "prevSize": 20,
        "code": 59673,
        "name": "chevron-with-circle-up"
      },
      "setIdx": 2,
      "setId": 9,
      "iconIdx": 15
    },
    {
      "icon": {
        "paths": [
          "M870.4 153.6h-51.2v102.4h-153.6v-102.4h-307.2v102.4h-153.6v-102.4h-51.2c-56.371 0-102.4 46.080-102.4 102.4v614.4c0 56.32 46.029 102.4 102.4 102.4h716.8c56.32 0 102.4-46.080 102.4-102.4v-614.4c0-56.32-46.080-102.4-102.4-102.4zM870.4 870.4h-716.8v-409.6h716.8v409.6zM332.8 51.2h-102.4v179.2h102.4v-179.2zM793.6 51.2h-102.4v179.2h102.4v-179.2z"
        ],
        "attrs": [],
        "isMulticolor": false,
        "isMulticolor2": false,
        "tags": [
          "calendar"
        ],
        "grid": 20
      },
      "attrs": [],
      "properties": {
        "id": 16,
        "order": 20,
        "prevSize": 20,
        "code": 59674,
        "name": "calendar"
      },
      "setIdx": 2,
      "setId": 9,
      "iconIdx": 16
    },
    {
      "icon": {
        "paths": [
          "M686.286 448c80.571 23.429 191.429 102.857 191.429 362.857 0 117.714-87.429 213.143-194.857 213.143h-488c-107.429 0-194.857-95.429-194.857-213.143 0-260 110.857-339.429 191.429-362.857-28.571-45.143-45.143-98.286-45.143-155.429 0-161.143 131.429-292.571 292.571-292.571s292.571 131.429 292.571 292.571c0 57.143-16.571 110.286-45.143 155.429zM438.857 73.143c-121.143 0-219.429 98.286-219.429 219.429s98.286 219.429 219.429 219.429 219.429-98.286 219.429-219.429-98.286-219.429-219.429-219.429zM682.857 950.857c66.857 0 121.714-62.286 121.714-140 0-180-60.571-292.571-173.714-298.286-51.429 45.143-118.286 72.571-192 72.571s-140.571-27.429-192-72.571c-113.143 5.714-173.714 118.286-173.714 298.286 0 77.714 54.857 140 121.714 140h488z"
        ],
        "width": 877.7142857142857,
        "attrs": [],
        "isMulticolor": false,
        "isMulticolor2": false,
        "tags": [
          "user-o"
        ],
        "defaultCode": 62144,
        "grid": 14
      },
      "attrs": [],
      "properties": {
        "name": "user-o",
        "id": 0,
        "order": 21,
        "prevSize": 28,
        "code": 62144
      },
      "setIdx": 3,
      "setId": 8,
      "iconIdx": 0
    }
  ],
  "height": 1024,
  "metadata": {
    "name": "icomoon"
  },
  "preferences": {
    "showGlyphs": true,
    "showQuickUse": true,
    "showQuickUse2": true,
    "showSVGs": true,
    "fontPref": {
      "prefix": "icon-",
      "metadata": {
        "fontFamily": "icomoon"
      },
      "metrics": {
        "emSize": 1024,
        "baseline": 6.25,
        "whitespace": 50
      },
      "embed": false
    },
    "imagePref": {
      "prefix": "icon-",
      "png": true,
      "useClassSelector": true,
      "color": 0,
      "bgColor": 16777215,
      "classSelector": ".icon"
    },
    "historySize": 50,
    "showCodes": true,
    "gridSize": 16
  }
}